[
    {        
      "id": "1",
      "name": "test",
      "description": "test",
      "imagePath": "test"

    },
    {        
        "id": "2",
        "name": "test2",
        "description": "test2",
        "imagePath": "test2"
  
      },
      {        
        "id": "3",
        "name": "test3",
        "description": "test3",
        "imagePath": "test3"
      }
  ]